Service,Cost
Consulting,602
Consulting,575
Consulting,366
Consulting,899
Consulting,1100
Consulting,1082
Consulting,309
Consulting,796
Consulting,634
Consulting,417
Consulting,1140
Consulting,868
Consulting,1106
Consulting,1129
Consulting,707
Consulting,855
Consulting,968
Consulting,448
Consulting,427
Consulting,749
Consulting,935
Consulting,333
Consulting,918
Consulting,1127
Consulting,430
Consulting,730
Consulting,306
Consulting,1109
Consulting,588
Consulting,729
Consulting,1175
Consulting,1199
Consulting,571
Sales,432
Sales,991
Sales,1016
Sales,584
Sales,1030
Sales,379
Sales,1012
Sales,558
Sales,1115
Sales,1035
Sales,351
Sales,301
Sales,463
Sales,363
Sales,376
Sales,572
Sales,967
Sales,813
Sales,425
Sales,885
Sales,913
Sales,763
Sales,719
Sales,673
Sales,1032
Sales,531
Sales,593
Sales,1182
Sales,1020
Sales,1001
Sales,924
Sales,1124
Sales,969
Sales,1107
Sales,954
Sales,784
Marketing,814
Marketing,461
Marketing,808
Marketing,513
Marketing,708
Marketing,1154
Marketing,629
Marketing,1090
Marketing,645
Marketing,859
Marketing,1093
Marketing,789
Marketing,562
Marketing,514
Marketing,1142
Marketing,690
Marketing,512
Marketing,633
Marketing,486
Marketing,950
Marketing,1031
Marketing,1164
Marketing,1103
Marketing,790
Marketing,1185
Marketing,679
Marketing,1190
Marketing,412
Marketing,704
Marketing,869
Marketing,398
Marketing,433
Marketing,811
Marketing,940
Marketing,997
Marketing,611
Marketing,856
Marketing,842
Marketing,532
Marketing,1130
Marketing,646
Marketing,753
Marketing,1069
Marketing,713
Marketing,750
Marketing,1073
Marketing,651
Marketing,894
Manufacturing,1144
Manufacturing,800
Manufacturing,499
Manufacturing,765
Manufacturing,1091
Manufacturing,974
Manufacturing,311
Manufacturing,362
Manufacturing,657
Manufacturing,627
Manufacturing,493
Manufacturing,403
Manufacturing,322
Manufacturing,979
Manufacturing,828
Manufacturing,743
Manufacturing,827
Manufacturing,1157
Manufacturing,527
Manufacturing,700
Manufacturing,731
Manufacturing,464
Manufacturing,922
Manufacturing,569
Manufacturing,458
Manufacturing,329
Manufacturing,324
Manufacturing,624
Manufacturing,1007
Manufacturing,966
Manufacturing,478
Manufacturing,435
Manufacturing,759
Manufacturing,604